fir_vivado/fir_vivado.sim/sim_1/behav/xsim/fir.vcd
$date
   Tue Oct 17 14:29:56 2023
$end
$version
  2022.1
$end
$timescale
  1ps
$end
$scope module fir_tb $end
$var wire 1 ! awready $end
$var wire 1 " wready $end
$var reg 1 # awvalid $end
$var reg 12 $ awaddr [11:0] $end
$var reg 1 % wvalid $end
$var reg 32 & wdata [31:0] $end
$var wire 1 ' arready $end
$var reg 1 ( rready $end
$var reg 1 ) arvalid $end
$var reg 12 * araddr [11:0] $end
$var wire 1 + rvalid $end
$var wire 32 , rdata [31:0] $end
$var reg 1 - ss_tvalid $end
$var reg 32 . ss_tdata [31:0] $end
$var reg 1 / ss_tlast $end
$var wire 1 0 ss_tready $end
$var reg 1 1 sm_tready $end
$var wire 1 2 sm_tvalid $end
$var wire 32 3 sm_tdata [31:0] $end
$var wire 1 4 sm_tlast $end
$var reg 1 5 axis_clk $end
$var reg 1 6 axis_rst_n $end
$var wire 4 7 tap_WE [3:0] $end
$var wire 1 8 tap_EN $end
$var wire 32 9 tap_Di [31:0] $end
$var wire 12 : tap_A [11:0] $end
$var wire 32 ; tap_Do [31:0] $end
$var wire 4 < data_WE [3:0] $end
$var wire 1 = data_EN $end
$var wire 32 > data_Di [31:0] $end
$var wire 12 ? data_A [11:0] $end
$var wire 32 @ data_Do [31:0] $end
$var reg 32 A data_length [31:0] $end
$var integer 32 B Din [31:0] $end
$var integer 32 C golden [31:0] $end
$var integer 32 D input_data [31:0] $end
$var integer 32 E golden_data [31:0] $end
$var integer 32 F m [31:0] $end
$var integer 32 G i [31:0] $end
$var integer 32 H k [31:0] $end
$var reg 1 I error $end
$var reg 1 J error_coef $end
$var reg 1 K status_error $end
$var integer 32 L timeout [31:0] $end
$scope module fir_DUT $end
$var wire 1 ! awready $end
$var wire 1 " wready $end
$var wire 1 M awvalid $end
$var wire 12 N awaddr [11:0] $end
$var wire 1 O wvalid $end
$var wire 32 P wdata [31:0] $end
$var wire 1 ' arready $end
$var wire 1 Q rready $end
$var wire 1 R arvalid $end
$var wire 12 S araddr [11:0] $end
$var wire 1 + rvalid $end
$var wire 32 , rdata [31:0] $end
$var wire 1 T ss_tvalid $end
$var wire 32 U ss_tdata [31:0] $end
$var wire 1 V ss_tlast $end
$var wire 1 0 ss_tready $end
$var wire 1 W sm_tready $end
$var wire 1 2 sm_tvalid $end
$var wire 32 3 sm_tdata [31:0] $end
$var wire 1 4 sm_tlast $end
$var wire 4 7 tap_WE [3:0] $end
$var wire 1 8 tap_EN $end
$var wire 32 9 tap_Di [31:0] $end
$var wire 12 : tap_A [11:0] $end
$var wire 32 ; tap_Do [31:0] $end
$var wire 4 < data_WE [3:0] $end
$var wire 1 = data_EN $end
$var wire 32 > data_Di [31:0] $end
$var wire 12 ? data_A [11:0] $end
$var wire 32 @ data_Do [31:0] $end
$var wire 1 X axis_clk $end
$var wire 1 Y axis_rst_n $end
$var wire 1 Z ap_start $end
$var wire 1 [ ap_ready $end
$var wire 1 \ ap_done $end
$var wire 1 ] ap_idle $end
$var wire 1 ^ ap_done_ack $end
$var reg 3 _ state_r [2:0] $end
$var reg 3 ` state_w [2:0] $end
$var reg 4 a i_r [3:0] $end
$var reg 1 b first_ten_data_r $end
$var reg 1 c last_r $end
$var wire 1 d load_done $end
$var wire 1 e calc_done $end
$var wire 1 f send_done $end
$var wire 32 g data_len [31:0] $end
$var reg 12 h waddr_r [11:0] $end
$var wire 12 i raddr [11:0] $end
$var wire 12 j raddr_sft [11:0] $end
$var wire 4 k axi_tap_we [3:0] $end
$var wire 12 l axi_tap_a [11:0] $end
$var reg 32 m acc_r [31:0] $end
$var wire 32 n mul_a [31:0] $end
$var wire 32 o mul_b [31:0] $end
$var wire 32 p mul_o [31:0] $end
$var wire 32 q add_a [31:0] $end
$var wire 32 r add_b [31:0] $end
$var wire 32 s add_o [31:0] $end
$scope module mul_0 $end
$var wire 32 n a [31:0] $end
$var wire 32 o b [31:0] $end
$var wire 32 p p [31:0] $end
$upscope $end
$scope module add_0 $end
$var wire 32 q a [31:0] $end
$var wire 32 r b [31:0] $end
$var wire 32 s s [31:0] $end
$upscope $end
$scope module axilite_0 $end
$var wire 1 ! awready $end
$var wire 1 " wready $end
$var wire 1 M awvalid $end
$var wire 12 N awaddr [11:0] $end
$var wire 1 O wvalid $end
$var wire 32 P wdata [31:0] $end
$var wire 1 ' arready $end
$var wire 1 Q rready $end
$var wire 1 R arvalid $end
$var wire 12 S araddr [11:0] $end
$var wire 1 + rvalid $end
$var wire 32 , rdata [31:0] $end
$var wire 4 k tap_WE [3:0] $end
$var wire 32 9 tap_Di [31:0] $end
$var wire 12 l tap_A [11:0] $end
$var wire 32 ; tap_Do [31:0] $end
$var wire 1 Z ap_start $end
$var wire 1 [ ap_ready $end
$var wire 1 \ ap_done $end
$var wire 1 ] ap_idle $end
$var wire 32 g data_len [31:0] $end
$var wire 1 ^ ap_done_ack $end
$var wire 1 X axis_clk $end
$var wire 1 Y axis_rst_n $end
$var reg 1 t wstate_r $end
$var reg 1 u wstate_w $end
$var wire 1 v aw_hs $end
$var wire 1 w w_hs $end
$var wire 1 x ctrl_w_hs $end
$var wire 1 y len_w_hs $end
$var wire 1 z tap_w_hs $end
$var reg 12 { waddr_r [11:0] $end
$var reg 1 | ap_start_r $end
$var reg 32 } data_len_r [31:0] $end
$var reg 1 ~ rstate_r $end
$var reg 1 !! rstate_w $end
$var wire 1 "! ar_hs $end
$var wire 1 #! ctrl_ar_hs $end
$var wire 1 $! len_ar_hs $end
$var wire 1 %! tap_ar_hs $end
$var reg 1 &! ctrl_ar_hs_r $end
$var reg 1 '! tap_ar_hs_r $end
$var wire 12 (! tap_addr [11:0] $end
$var reg 32 )! rdata_r [31:0] $end
$upscope $end
$upscope $end
$scope module tap_RAM $end
$var wire 1 *! CLK $end
$var wire 4 7 WE [3:0] $end
$var wire 1 8 EN $end
$var wire 32 9 Di [31:0] $end
$var wire 32 ; Do [31:0] $end
$var wire 12 : A [11:0] $end
$var reg 12 +! r_A [11:0] $end
$var reg 32 ,! Temp_D [31:0] $end
$upscope $end
$scope module data_RAM $end
$var wire 1 -! CLK $end
$var wire 4 < WE [3:0] $end
$var wire 1 = EN $end
$var wire 32 > Di [31:0] $end
$var wire 32 @ Do [31:0] $end
$var wire 12 ? A [11:0] $end
$var reg 12 .! r_A [11:0] $end
$var reg 32 /! Temp_D [31:0] $end
$upscope $end
$scope task config_write $end
$var reg 12 0! addr [11:0] $end
$var reg 32 1! data [31:0] $end
$upscope $end
$scope task config_read_check $end
$var reg 12 2! addr [11:0] $end
$var reg 32 3! exp_data [31:0] $end
$var reg 32 4! mask [31:0] $end
$upscope $end
$scope task ss $end
$var reg 32 5! in1 [31:0] $end
$upscope $end
$scope task sm $end
$var reg 32 6! in2 [31:0] $end
$var reg 32 7! pcnt [31:0] $end
$upscope $end
$upscope $end
$enddefinitions $end
#0
$dumpvars
1!
0!!
0"
x"!
0#
x#!
bx $
x$!
0%
x%!
bx &
0&!
1'
0'!
x(
bx (!
x)
b0 )!
bx *
0*!
0+
bx +!
b0 ,
bx ,!
1-
0-!
b1 .
bx .!
0/
bx /!
00
b10000 0!
11
b1001011000 1!
02
bx 2!
b0 3
bx 3!
04
bx 4!
05
b1 5!
06
bx 6!
b0 7
bx 7!
18
bx 9
bx0xxxxxxx :
bx ;
b0 <
1=
b0 >
b100 ?
bx @
b1001011000 A
b11111111111111111011000111100000 B
b11111111111111111011000111100001 C
b1 D
b1 E
b1001011000 F
b0 G
bx H
0I
0J
0K
b11110100001001000000 L
0M
bx N
0O
bx P
xQ
xR
bx S
1T
b1 U
0V
1W
0X
0Y
0Z
0[
0\
1]
0^
b0 _
b0 `
b0 a
1b
0c
0d
0e
0f
b0 g
b0 h
b100 i
b100 j
b0 k
bx0xxxxxxx l
b0 m
bx n
bx o
bx p
b0 q
bx r
bx s
0t
0u
0v
0w
0x
0y
0z
b0 {
0|
b0 }
0~
$end
#5000
1#
b10000 $
1%
b1001011000 &
0&!
0'!
b0 )!
1*!
bx0xxxxxxx +!
1-!
b100 .!
b0 3
15
b1001011000 9
bx ;
bx @
b11110100001000111111 L
1M
b10000 N
1O
b1001011000 P
1X
b0 _
b0 a
1b
0c
b0 h
b0 m
b0 q
0t
1u
1v
0w
b0 {
0|
b0 }
0~
#10000
0*!
0-!
05
0X
#15000
0!
1"
x'!
bx (!
1*!
bx0xxxxxxx +!
bx ,
1-!
b100 .!
b0 3
15
16
b11110100001000111110 L
1X
1Y
b0 _
bx m
bx q
bx s
1t
0u
0v
1w
0x
1y
0z
b10000 {
0~
#20000
0*!
0-!
05
0X
#25000
1!
0"
0#
0%
b0 &
x'!
1*!
bx0xxxxxxx +!
1-!
b100 .!
b10000000 0!
b0 1!
15
b0 9
b0 H
b11110100001000111101 L
0M
0O
b0 P
1X
b0 _
b1001011000 g
bx m
0t
0v
0w
0x
0y
0z
b1001011000 }
0~
#30000
0*!
0-!
05
0X
#35000
1#
b10000000 $
1%
b0 &
x'!
1*!
bx0xxxxxxx +!
1-!
b100 .!
15
b11110100001000111100 L
1M
b10000000 N
1O
1X
b0 _
bx m
0t
1u
1v
0w
0~
#40000
0*!
0-!
05
0X
#45000
0!
1"
x'!
b10000000 (!
1*!
bx0xxxxxxx +!
1-!
b100 .!
15
b1111 7
b0 :
b11110100001000111011 L
1X
b0 _
b1111 k
b0 l
bx m
1t
0u
0v
1w
0x
0y
1z
b10000000 {
0~
#50000
0*!
0-!
05
0X
#55000
1!
0"
0#
0%
b0 &
x'!
bx (!
1*!
b0 +!
b0 ,
1-!
b100 .!
b10000100 0!
b11111111111111111111111111110110 1!
15
b0 7
bx0xxxxxxx :
b0 ;
b1 H
b11110100001000111010 L
0M
0O
1X
b0 _
b0 k
bx0xxxxxxx l
bx m
b0 o
bx p
0t
0v
0w
0x
0y
0z
0~
#60000
0*!
0-!
05
0X
#65000
1#
b10000100 $
1%
b11111111111111111111111111110110 &
x'!
1*!
bx0xxxxxxx +!
bx ,
1-!
b100 .!
15
b11111111111111111111111111110110 9
bx ;
b11110100001000111001 L
1M
b10000100 N
1O
b11111111111111111111111111110110 P
1X
b0 _
bx m
bx o
bx p
0t
1u
1v
0w
0~
#70000
0*!
0-!
05
0X
#75000
0!
1"
x'!
b10000100 (!
1*!
bx0xxxxxxx +!
1-!
b100 .!
15
b1111 7
b100 :
b11110100001000111000 L
1X
b0 _
b1111 k
b100 l
bx m
1t
0u
0v
1w
0x
0y
1z
b10000100 {
0~
#80000
0*!
0-!
05
0X
#85000
1!
0"
0#
0%
b0 &
x'!
bx (!
1*!
b100 +!
bx0xx0 ,
1-!
b100 .!
b10001000 0!
b11111111111111111111111111110111 1!
15
b0 7
b0 9
bx0xxxxxxx :
b11111111111111111111111111110110 ;
b10 H
b11110100001000110111 L
0M
0O
b0 P
1X
b0 _
b0 k
bx0xxxxxxx l
bx m
b11111111111111111111111111110110 o
bx p
0t
0v
0w
0x
0y
0z
0~
#90000
0*!
0-!
05
0X
#95000
1#
b10001000 $
1%
b11111111111111111111111111110111 &
x'!
1*!
bx0xxxxxxx +!
bx ,
1-!
b100 .!
15
b11111111111111111111111111110111 9
bx ;
b11110100001000110110 L
1M
b10001000 N
1O
b11111111111111111111111111110111 P
1X
b0 _
bx m
bx o
bx p
0t
1u
1v
0w
0~
#100000
0*!
0-!
05
0X
#105000
0!
1"
x'!
b10001000 (!
1*!
bx0xxxxxxx +!
1-!
b100 .!
15
b1111 7
b1000 :
b11110100001000110101 L
1X
b0 _
b1111 k
b1000 l
bx m
1t
0u
0v
1w
0x
0y
1z
b10001000 {
0~
#110000
0*!
0-!
05
0X
#115000
1!
0"
0#
0%
b0 &
x'!
bx (!
1*!
b1000 +!
bx0xxx ,
1-!
b100 .!
b10001100 0!
b10111 1!
15
b0 7
b0 9
bx0xxxxxxx :
b11111111111111111111111111110111 ;
b11 H
b11110100001000110100 L
0M
0O
b0 P
1X
b0 _
b0 k
bx0xxxxxxx l
bx m
b11111111111111111111111111110111 o
bx p
0t
0v
0w
0x
0y
0z
0~
#120000
0*!
0-!
05
0X
#125000
1#
b10001100 $
1%
b10111 &
x'!
1*!
bx0xxxxxxx +!
bx ,
1-!
b100 .!
15
b10111 9
bx ;
b11110100001000110011 L
1M
b10001100 N
1O
b10111 P
1X
b0 _
bx m
bx o
bx p
0t
1u
1v
0w
0~
#130000
0*!
0-!
05
0X
#135000
0!
1"
x'!
b10001100 (!
1*!
bx0xxxxxxx +!
1-!
b100 .!
15
b1111 7
b1100 :
b11110100001000110010 L
1X
b0 _
b1111 k
b1100 l
bx m
1t
0u
0v
1w
0x
0y
1z
b10001100 {
0~
#140000
0*!
0-!
05
0X
#145000
1!
0"
0#
0%
b0 &
x'!
bx (!
1*!
b1100 +!
b0x0xxx ,
1-!
b100 .!
b10010000 0!
b111000 1!
15
b0 7
b0 9
bx0xxxxxxx :
b10111 ;
b100 H
b11110100001000110001 L
0M
0O
b0 P
1X
b0 _
b0 k
bx0xxxxxxx l
bx m
b10111 o
bx p
0t
0v
0w
0x
0y
0z
0~
#150000
0*!
0-!
05
0X
#155000
1#
b10010000 $
1%
b111000 &
x'!
1*!
bx0xxxxxxx +!
bx ,
1-!
b100 .!
15
b111000 9
bx ;
b11110100001000110000 L
1M
b10010000 N
1O
b111000 P
1X
b0 _
bx m
bx o
bx p
0t
1u
1v
0w
0~
#160000
0*!
0-!
05
0X
#165000
0!
1"
x'!
b10010000 (!
1*!
bx0xxxxxxx +!
1-!
b100 .!
15
b1111 7
b10000 :
b11110100001000101111 L
1X
b0 _
b1111 k
b10000 l
bx m
1t
0u
0v
1w
0x
0y
1z
b10010000 {
0~
#170000
0*!
0-!
05
0X
#175000
1!
0"
0#
0%
b0 &
x'!
bx (!
1*!
b10000 +!
b0xxx000 ,
1-!
b100 .!
b10010100 0!
b111111 1!
15
b0 7
b0 9
bx0xxxxxxx :
b111000 ;
b101 H
b11110100001000101110 L
0M
0O
b0 P
1X
b0 _
b0 k
bx0xxxxxxx l
bx m
b111000 o
bx p
0t
0v
0w
0x
0y
0z
0~
#180000
0*!
0-!
05
0X
#185000
1#
b10010100 $
1%
b111111 &
x'!
1*!
bx0xxxxxxx +!
bx ,
1-!
b100 .!
15
b111111 9
bx ;
b11110100001000101101 L
1M
b10010100 N
1O
b111111 P
1X
b0 _
bx m
bx o
bx p
0t
1u
1v
0w
0~
#190000
0*!
0-!
05
0X
#195000
0!
1"
x'!
b10010100 (!
1*!
bx0xxxxxxx +!
1-!
b100 .!
15
b1111 7
b10100 :
b11110100001000101100 L
1X
b0 _
b1111 k
b10100 l
bx m
1t
0u
0v
1w
0x
0y
1z
b10010100 {
0~
#200000
0*!
0-!
05
0X
#205000
1!
0"
0#
0%
b0 &
x'!
bx (!
1*!
b10100 +!
b0xxxxxx ,
1-!
b100 .!
b10011000 0!
b111000 1!
15
b0 7
b0 9
bx0xxxxxxx :
b111111 ;
b110 H
b11110100001000101011 L
0M
0O
b0 P
1X
b0 _
b0 k
bx0xxxxxxx l
bx m
b111111 o
bx p
0t
0v
0w
0x
0y
0z
0~
#210000
0*!
0-!
05
0X
#215000
1#
b10011000 $
1%
b111000 &
x'!
1*!
bx0xxxxxxx +!
bx ,
1-!
b100 .!
15
b111000 9
bx ;
b11110100001000101010 L
1M
b10011000 N
1O
b111000 P
1X
b0 _
bx m
bx o
bx p
0t
1u
1v
0w
0~
#220000
0*!
0-!
05
0X
#225000
0!
1"
x'!
b10011000 (!
1*!
bx0xxxxxxx +!
1-!
b100 .!
15
b1111 7
b11000 :
b11110100001000101001 L
1X
b0 _
b1111 k
b11000 l
bx m
1t
0u
0v
1w
0x
0y
1z
b10011000 {
0~
#230000
0*!
0-!
05
0X
#235000
1!
0"
0#
0%
b0 &
x'!
bx (!
1*!
b11000 +!
b0xxx000 ,
1-!
b100 .!
b10011100 0!
b10111 1!
15
b0 7
b0 9
bx0xxxxxxx :
b111000 ;
b111 H
b11110100001000101000 L
0M
0O
b0 P
1X
b0 _
b0 k
bx0xxxxxxx l
bx m
b111000 o
bx p
0t
0v
0w
0x
0y
0z
0~
#240000
0*!
0-!
05
0X
#245000
1#
b10011100 $
1%
b10111 &
x'!
1*!
bx0xxxxxxx +!
bx ,
1-!
b100 .!
15
b10111 9
bx ;
b11110100001000100111 L
1M
b10011100 N
1O
b10111 P
1X
b0 _
bx m
bx o
bx p
0t
1u
1v
0w
0~
#250000
0*!
0-!
05
0X
#255000
0!
1"
x'!
b10011100 (!
1*!
bx0xxxxxxx +!
1-!
b100 .!
15
b1111 7
b11100 :
b11110100001000100110 L
1X
b0 _
b1111 k
b11100 l
bx m
1t
0u
0v
1w
0x
0y
1z
b10011100 {
0~
#260000
0*!
0-!
05
0X
#265000
1!
0"
0#
0%
b0 &
x'!
bx (!
1*!
b11100 +!
b0x0xxx ,
1-!
b100 .!
b10100000 0!
b11111111111111111111111111110111 1!
15
b0 7
b0 9
bx0xxxxxxx :
b10111 ;
b1000 H
b11110100001000100101 L
0M
0O
b0 P
1X
b0 _
b0 k
bx0xxxxxxx l
bx m
b10111 o
bx p
0t
0v
0w
0x
0y
0z
0~
#270000
0*!
0-!
05
0X
#275000
1#
b10100000 $
1%
b11111111111111111111111111110111 &
x'!
1*!
bx0xxxxxxx +!
bx ,
1-!
b100 .!
15
b11111111111111111111111111110111 9
bx ;
b11110100001000100100 L
1M
b10100000 N
1O
b11111111111111111111111111110111 P
1X
b0 _
bx m
bx o
bx p
0t
1u
1v
0w
0~
#280000
0*!
0-!
05
0X
#285000
0!
1"
x'!
b10100000 (!
1*!
bx0xxxxxxx +!
1-!
b100 .!
15
b1111 7
b100000 :
b11110100001000100011 L
1X
b0 _
b1111 k
b100000 l
bx m
1t
0u
0v
1w
0x
0y
1z
b10100000 {
0~
#290000
0*!
0-!
05
0X
#295000
1!
0"
0#
0%
b0 &
x'!
bx (!
1*!
b100000 +!
bx0xxx ,
1-!
b100 .!
b10100100 0!
b11111111111111111111111111110110 1!
15
b0 7
b0 9
bx0xxxxxxx :
b11111111111111111111111111110111 ;
b1001 H
b11110100001000100010 L
0M
0O
b0 P
1X
b0 _
b0 k
bx0xxxxxxx l
bx m
b11111111111111111111111111110111 o
bx p
0t
0v
0w
0x
0y
0z
0~
#300000
0*!
0-!
05
0X
#305000
1#
b10100100 $
1%
b11111111111111111111111111110110 &
x'!
1*!
bx0xxxxxxx +!
bx ,
1-!
b100 .!
15
b11111111111111111111111111110110 9
bx ;
b11110100001000100001 L
1M
b10100100 N
1O
b11111111111111111111111111110110 P
1X
b0 _
bx m
bx o
bx p
0t
1u
1v
0w
0~
#310000
0*!
0-!
05
0X
#315000
0!
1"
x'!
b10100100 (!
1*!
bx0xxxxxxx +!
1-!
b100 .!
15
b1111 7
b100100 :
b11110100001000100000 L
1X
b0 _
b1111 k
b100100 l
bx m
1t
0u
0v
1w
0x
0y
1z
b10100100 {
0~
#320000
0*!
0-!
05
0X
#325000
1!
0"
0#
0%
b0 &
x'!
bx (!
1*!
b100100 +!
bx0xx0 ,
1-!
b100 .!
b10101000 0!
b0 1!
15
b0 7
b0 9
bx0xxxxxxx :
b11111111111111111111111111110110 ;
b1010 H
b11110100001000011111 L
0M
0O
b0 P
1X
b0 _
b0 k
bx0xxxxxxx l
bx m
b11111111111111111111111111110110 o
bx p
0t
0v
0w
0x
0y
0z
0~
#330000
0*!
0-!
05
0X
#335000
1#
b10101000 $
1%
b0 &
x'!
1*!
bx0xxxxxxx +!
bx ,
1-!
b100 .!
15
bx ;
b11110100001000011110 L
1M
b10101000 N
1O
1X
b0 _
bx m
bx o
bx p
0t
1u
1v
0w
0~
#340000
0*!
0-!
05
0X
#345000
0!
1"
x'!
b10101000 (!
1*!
bx0xxxxxxx +!
1-!
b100 .!
15
b1111 7
b101000 :
b11110100001000011101 L
1X
b0 _
b1111 k
b101000 l
bx m
1t
0u
0v
1w
0x
0y
1z
b10101000 {
0~
#350000
0*!
0-!
05
0X
#355000
1!
0"
0"!
0#
0#!
0$!
0%
0%!
b0 &
x'!
bx (!
0)
1*!
b101000 +!
b0 ,
1-!
b100 .!
b10000000 2!
b0 3!
b11111111111111111111111111111111 4!
15
b0 7
bx0xxxxxxx :
b0 ;
b0 H
b11110100001000011100 L
0M
0O
0R
1X
b0 _
b0 k
bx0xxxxxxx l
bx m
b0 o
bx p
0t
0v
0w
0x
0y
0z
0~
#360000
0*!
0-!
05
0X
#365000
1!!
1"!
0#!
0$!
1%!
0'!
1(
b10000000 (!
1)
b10000000 *
1*!
bx0xxxxxxx +!
b0 ,
1-!
b100 .!
15
b0 :
bx ;
b11110100001000011011 L
1Q
1R
b10000000 S
1X
b0 _
b0 l
bx m
bx o
bx p
0t
0~
#370000
0*!
0-!
05
0X
#375000
0!!
0"!
0#!
0$!
0%!
0'
1'!
1*!
1+
b0 +!
b0 ,
1-!
b100 .!
15
b0 ;
b11110100001000011010 L
1X
b0 _
bx m
b0 o
bx p
0t
1~
#380000
0*!
0-!
05
0X
#385000
0"!
1'
0'!
0)
b0 )!
1*!
0+
b0 +!
b0 ,
1-!
b100 .!
b10000100 2!
b11111111111111111111111111110110 3!
b11111111111111111111111111111111 4!
15
b1 H
b11110100001000011001 L
0R
1X
b0 _
bx m
0t
0~
#390000
0*!
0-!
05
0X
#395000
1!!
1"!
0#!
0$!
1%!
0'!
1(
b10000100 (!
1)
b10000100 *
1*!
b0 +!
1-!
b100 .!
15
b100 :
b11110100001000011000 L
1R
b10000100 S
1X
b0 _
b100 l
bx m
0t
0~
#400000
0*!
0-!
05
0X
#405000
0!!
0"!
0#!
0$!
0%!
0'
1'!
1*!
1+
b100 +!
b11111111111111111111111111110110 ,
1-!
b100 .!
15
b11111111111111111111111111110110 ;
b11110100001000010111 L
1X
b0 _
bx m
b11111111111111111111111111110110 o
bx p
0t
1~
#410000
0*!
0-!
05
0X
#415000
0"!
1'
0'!
0)
b11111111111111111111111111110110 )!
1*!
0+
b100 +!
b11111111111111111111111111110110 ,
1-!
b100 .!
b10001000 2!
b11111111111111111111111111110111 3!
b11111111111111111111111111111111 4!
15
b10 H
b11110100001000010110 L
0R
1X
b0 _
bx m
0t
0~
#420000
0*!
0-!
05
0X
#425000
1!!
1"!
0#!
0$!
1%!
0'!
1(
b10001000 (!
1)
b10001000 *
1*!
b100 +!
1-!
b100 .!
15
b1000 :
b11110100001000010101 L
1R
b10001000 S
1X
b0 _
b1000 l
bx m
0t
0~
#430000
0*!
0-!
05
0X
#435000
0!!
0"!
0#!
0$!
0%!
0'
1'!
1*!
1+
b1000 +!
b11111111111111111111111111110111 ,
1-!
b100 .!
15
b11111111111111111111111111110111 ;
b11110100001000010100 L
1X
b0 _
bx m
b11111111111111111111111111110111 o
bx p
0t
1~
#440000
0*!
0-!
05
0X
#445000
0"!
1'
0'!
0)
b11111111111111111111111111110111 )!
1*!
0+
b1000 +!
b11111111111111111111111111110111 ,
1-!
b100 .!
b10001100 2!
b10111 3!
b11111111111111111111111111111111 4!
15
b11 H
b11110100001000010011 L
0R
1X
b0 _
bx m
0t
0~
#450000
0*!
0-!
05
0X
#455000
1!!
1"!
0#!
0$!
1%!
0'!
1(
b10001100 (!
1)
b10001100 *
1*!
b1000 +!
1-!
b100 .!
15
b1100 :
b11110100001000010010 L
1R
b10001100 S
1X
b0 _
b1100 l
bx m
0t
0~
#460000
0*!
0-!
05
0X
#465000
0!!
0"!
0#!
0$!
0%!
0'
1'!
1*!
1+
b1100 +!
b10111 ,
1-!
b100 .!
15
b10111 ;
b11110100001000010001 L
1X
b0 _
bx m
b10111 o
bx p
0t
1~
#470000
0*!
0-!
05
0X
#475000
0"!
1'
0'!
0)
b10111 )!
1*!
0+
b1100 +!
b10111 ,
1-!
b100 .!
b10010000 2!
b111000 3!
b11111111111111111111111111111111 4!
15
b100 H
b11110100001000010000 L
0R
1X
b0 _
bx m
0t
0~
#480000
0*!
0-!
05
0X
#485000
1!!
1"!
0#!
0$!
1%!
0'!
1(
b10010000 (!
1)
b10010000 *
1*!
b1100 +!
1-!
b100 .!
15
b10000 :
b11110100001000001111 L
1R
b10010000 S
1X
b0 _
b10000 l
bx m
0t
0~
#490000
0*!
0-!
05
0X
#495000
0!!
0"!
0#!
0$!
0%!
0'
1'!
1*!
1+
b10000 +!
b111000 ,
1-!
b100 .!
15
b111000 ;
b11110100001000001110 L
1X
b0 _
bx m
b111000 o
bx p
0t
1~
#500000
0*!
0-!
05
0X
#505000
0"!
1'
0'!
0)
b111000 )!
1*!
0+
b10000 +!
b111000 ,
1-!
b100 .!
b10010100 2!
b111111 3!
b11111111111111111111111111111111 4!
15
b101 H
b11110100001000001101 L
0R
1X
b0 _
bx m
0t
0~
#510000
0*!
0-!
05
0X
#515000
1!!
1"!
0#!
0$!
1%!
0'!
1(
b10010100 (!
1)
b10010100 *
1*!
b10000 +!
1-!
b100 .!
15
b10100 :
b11110100001000001100 L
1R
b10010100 S
1X
b0 _
b10100 l
bx m
0t
0~
#520000
0*!
0-!
05
0X
#525000
0!!
0"!
0#!
0$!
0%!
0'
1'!
1*!
1+
b10100 +!
b111111 ,
1-!
b100 .!
15
b111111 ;
b11110100001000001011 L
1X
b0 _
bx m
b111111 o
bx p
0t
1~
#530000
0*!
0-!
05
0X
#535000
0"!
1'
0'!
0)
b111111 )!
1*!
0+
b10100 +!
b111111 ,
1-!
b100 .!
b10011000 2!
b111000 3!
b11111111111111111111111111111111 4!
15
b110 H
b11110100001000001010 L
0R
1X
b0 _
bx m
0t
0~
#540000
0*!
0-!
05
0X
#545000
1!!
1"!
0#!
0$!
1%!
0'!
1(
b10011000 (!
1)
b10011000 *
1*!
b10100 +!
1-!
b100 .!
15
b11000 :
b11110100001000001001 L
1R
b10011000 S
1X
b0 _
b11000 l
bx m
0t
0~
#550000
0*!
0-!
05
0X
#555000
0!!
0"!
0#!
0$!
0%!
0'
1'!
1*!
1+
b11000 +!
b111000 ,
1-!
b100 .!
15
b111000 ;
b11110100001000001000 L
1X
b0 _
bx m
b111000 o
bx p
0t
1~
#560000
0*!
0-!
05
0X
#565000
0"!
1'
0'!
0)
b111000 )!
1*!
0+
b11000 +!
b111000 ,
1-!
b100 .!
b10011100 2!
b10111 3!
b11111111111111111111111111111111 4!
15
b111 H
b11110100001000000111 L
0R
1X
b0 _
bx m
0t
0~
#570000
0*!
0-!
05
0X
#575000
1!!
1"!
0#!
0$!
1%!
0'!
1(
b10011100 (!
1)
b10011100 *
1*!
b11000 +!
1-!
b100 .!
15
b11100 :
b11110100001000000110 L
1R
b10011100 S
1X
b0 _
b11100 l
bx m
0t
0~
#580000
0*!
0-!
05
0X
#585000
0!!
0"!
0#!
0$!
0%!
0'
1'!
1*!
1+
b11100 +!
b10111 ,
1-!
b100 .!
15
b10111 ;
b11110100001000000101 L
1X
b0 _
bx m
b10111 o
bx p
0t
1~
#590000
0*!
0-!
05
0X
#595000
0"!
1'
0'!
0)
b10111 )!
1*!
0+
b11100 +!
b10111 ,
1-!
b100 .!
b10100000 2!
b11111111111111111111111111110111 3!
b11111111111111111111111111111111 4!
15
b1000 H
b11110100001000000100 L
0R
1X
b0 _
bx m
0t
0~
#600000
0*!
0-!
05
0X
#605000
1!!
1"!
0#!
0$!
1%!
0'!
1(
b10100000 (!
1)
b10100000 *
1*!
b11100 +!
1-!
b100 .!
15
b100000 :
b11110100001000000011 L
1R
b10100000 S
1X
b0 _
b100000 l
bx m
0t
0~
#610000
0*!
0-!
05
0X
#615000
0!!
0"!
0#!
0$!
0%!
0'
1'!
1*!
1+
b100000 +!
b11111111111111111111111111110111 ,
1-!
b100 .!
15
b11111111111111111111111111110111 ;
b11110100001000000010 L
1X
b0 _
bx m
b11111111111111111111111111110111 o
bx p
0t
1~
#620000
0*!
0-!
05
0X
#625000
0"!
1'
0'!
0)
b11111111111111111111111111110111 )!
1*!
0+
b100000 +!
b11111111111111111111111111110111 ,
1-!
b100 .!
b10100100 2!
b11111111111111111111111111110110 3!
b11111111111111111111111111111111 4!
15
b1001 H
b11110100001000000001 L
0R
1X
b0 _
bx m
0t
0~
#630000
0*!
0-!
05
0X
#635000
1!!
1"!
0#!
0$!
1%!
0'!
1(
b10100100 (!
1)
b10100100 *
1*!
b100000 +!
1-!
b100 .!
15
b100100 :
b11110100001000000000 L
1R
b10100100 S
1X
b0 _
b100100 l
bx m
0t
0~
#640000
0*!
0-!
05
0X
#645000
0!!
0"!
0#!
0$!
0%!
0'
1'!
1*!
1+
b100100 +!
b11111111111111111111111111110110 ,
1-!
b100 .!
15
b11111111111111111111111111110110 ;
b11110100000111111111 L
1X
b0 _
bx m
b11111111111111111111111111110110 o
bx p
0t
1~
#650000
0*!
0-!
05
0X
#655000
0"!
1'
0'!
0)
b11111111111111111111111111110110 )!
1*!
0+
b100100 +!
b11111111111111111111111111110110 ,
1-!
b100 .!
b10101000 2!
b0 3!
b11111111111111111111111111111111 4!
15
b1010 H
b11110100000111111110 L
0R
1X
b0 _
bx m
0t
0~
#660000
0*!
0-!
05
0X
#665000
1!!
1"!
0#!
0$!
1%!
0'!
1(
b10101000 (!
1)
b10101000 *
1*!
b100100 +!
1-!
b100 .!
15
b101000 :
b11110100000111111101 L
1R
b10101000 S
1X
b0 _
b101000 l
bx m
0t
0~
#670000
0*!
0-!
05
0X
#675000
0!!
0"!
0#!
0$!
0%!
0'
1'!
1*!
1+
b101000 +!
b0 ,
1-!
b100 .!
15
b0 ;
b11110100000111111100 L
1X
b0 _
bx m
b0 o
bx p
0t
1~
#680000
0*!
0-!
05
0X
